{
  "name": "connect",
  "base": "PersistedModel",
  "strict": true,
  "idInjection": true,
  "options": {
    "validateUpsert": true
  },
  "properties": {
    "mode": {
      "type": "string",
      "required": true,
      "default": "network"
    },
    "gps": {
      "type": "geopoint"
    },
    "country": {
      "type": "string"
    },
    "city": {
      "type": "string"
    },
    "coverage": {
      "type": "number",
      "required": true,
      "default": 1
    },
    "type": {
      "type": "string",
      "required": true,
      "default": "kilometers"
    }
  },
  "validations": [],
  "relations": {
    "subscriber": {
      "type": "belongsTo",
      "model": "subscriber",
      "foreignKey": "subscriberId"
    }
  },
  "acls": [],
  "methods": {}
}
