{
  "name": "group",
  "base": "PersistedModel",
  "strict": true,
  "idInjection": false,
  "options": {
    "validateUpsert": true
  },
  "mixins": {
    "TimeStamp": true
  },
  "properties": {
    "field": {
      "type": "string",
      "required": true,
      "comments": "field/area/topic of expertise/interest"
    },
    "name": {
      "type": "string",
      "required": true,
      "index": true,
      "comments": "unique name of the group/group/forum"
    },
    "description": {
      "type": "string",
      "comments": "description of the group and its activities"
    }
  },
  "validations": [],
  "relations": {
    "members": {
      "type": "hasMany",
      "model": "subscriber",
      "foreignKey": "groupId",
      "through": "membership"
    },
    "administrators": {
      "type": "referencesMany",
      "model": "subscriber",
      "foreignKey": "adminIds",
      "options": {
        "validate": true,
        "forceId": false
      }
    },
    "posts": {
      "type": "hasMany",
      "model": "post",
      "foreignKey": ""
    }
  },
  "acls": [
    {
      "accessType": "*",
      "principalType": "ROLE",
      "principalId": "$everyone",
      "permission": "DENY"
    },
    {
      "accessType": "EXECUTE",
      "principalType": "ROLE",
      "principalId": "$authenticated",
      "permission": "ALLOW",
      "property": "create"
    },
    {
      "accessType": "READ",
      "principalType": "ROLE",
      "principalId": "groupMember",
      "permission": "ALLOW"
    },
    {
      "accessType": "WRITE",
      "principalType": "ROLE",
      "principalId": "groupAdmin",
      "permission": "ALLOW"
    },
    {
      "accessType": "EXECUTE",
      "principalType": "ROLE",
      "principalId": "groupMember",
      "permission": "ALLOW",
      "property": "__create__posts"
    },
    {
      "accessType": "EXECUTE",
      "principalType": "ROLE",
      "principalId": "groupMember",
      "permission": "ALLOW",
      "property": "__get__posts"
    },
    {
      "accessType": "EXECUTE",
      "principalType": "ROLE",
      "principalId": "groupAdmin",
      "permission": "ALLOW",
      "property": "__link__members"
    },
    {
      "accessType": "EXECUTE",
      "principalType": "ROLE",
      "principalId": "groupAdmin",
      "permission": "ALLOW",
      "property": "__unlink__members"
    },
    {
      "accessType": "EXECUTE",
      "principalType": "ROLE",
      "principalId": "$authenticated",
      "permission": "ALLOW",
      "property": "find"
    },
    {
      "accessType": "EXECUTE",
      "principalType": "ROLE",
      "principalId": "$authenticated",
      "permission": "ALLOW",
      "property": "__get__members"
    },
    {
      "accessType": "EXECUTE",
      "principalType": "ROLE",
      "principalId": "$authenticated",
      "permission": "ALLOW",
      "property": "__get__administrators"
    }
  ],
  "methods": {}
}
