{
  "name": "membership",
  "base": "PersistedModel",
  "idInjection": true,
  "options": {
    "validateUpsert": true
  },
  "properties": {},
  "validations": [],
  "relations": {
    "group": {
      "type": "belongsTo",
      "model": "group",
      "foreignKey": "groupId"
    },
    "subscriber": {
      "type": "belongsTo",
      "model": "subscriber",
      "foreignKey": "subscriberId"
    }
  },
  "acls": [],
  "methods": {}
}
